adder_floating_point/transcript
# Reading E:/ALT12/modelsim_ase/tcl/vsim/pref.tcl 
# OpenFile E:/adder_floating_point/adder_floating_point.mpf 
# Loading project adder_floating_point
# Compile of t.sv was successful.
# Compile of adder_floating_point.sv was successful.
# 2 compiles, 0 failed with no errors. 
# Compile of adder_floating_point.sv was successful.
# Compile of t.sv was successful.
# 2 compiles, 0 failed with no errors. 
vsim work.t
# vsim work.t 
# Loading sv_std.std
# Loading work.t
# Loading work.adder_floating_point
# WARNING: No extended dataflow license exists
run
#  01000101011010100110010111110100 01000101010001110001010010000101 01000101110110001011110100111100 01000101110110001011110100111100 01000100000011010100010110111100 01000100000011010100010110111100  
#  PASSED 
#  
#  01000101011000111100000001000101 01000100101111110011001100010000 01000101101000011010110011100110 01000101101000011010110011100110 01000101000001000010011010111101 01000101000001000010011010111101  
#  PASSED 
#  
#  01000100111010111110010110010000 01000100100000001101101010010001 01000101001101100110000000010000 01000101001101100110000000010000 01000100010101100001010111111110 01000100010101100001010111111110  
#  PASSED 
#  
#  01000100110011000111101000010000 01000100100111000100110100100001 01000101001101000110001110011000 01000101001101000110001110011000 01000011110000001011001110111100 01000011110000001011001110111100  
#  PASSED 
#  
#  01000101000110100011001101010111 01000110100100000110001000110110 01000110101000111010100010100000 01000110101000111010100010100001 11000110011110100011011110011000 11000110011110100011011110010110  
#  PASSED 
#  
#  01000101011000011010010010100111 01000100100010100111000110111110 01000101100100110110111011000011 01000101100100110110111011000011 01000101000111000110101111001000 01000101000111000110101111001000  
#  PASSED 
#  
#  01000101100001010000010001111011 01000100100101101010011111011000 01000101101010101010111001110001 01000101101010101010111001110001 01000101001111101011010100001010 01000101001111101011010100001010  
#  PASSED 
#  
#  01000110000010111001111010010010 01000110101001000011001111101100 01000110111010100000001100110101 01000110111010100000001100110101 11000110001111001100100101000110 11000110001111001100100101000110  
#  PASSED 
#  
#  01000101000010111001110000100010 01000101000001101100110110111110 01000101100010010011010011110000 01000101100010010011010011110000 01000010100110011100110010000000 01000010100110011100110010000000  
#  PASSED 
#  
#  01000100101001011001010101100100 01000101000111000010001111110001 01000101011011101110111010100011 01000101011011101110111010100011 11000100100100101011001001111110 11000100100100101011001001111110  
#  PASSED 
#  
vsim work.t
# vsim work.t 
# Loading sv_std.std
# Loading work.t
# Loading work.adder_floating_point
# WARNING: No extended dataflow license exists
run
#  01000101011010100110010111110100 01000101010001110001010010000101 01000101110110001011110100111100 01000101110110001011110100111100 01000100000011010100010110111100 01000100000011010100010110111100  
#  PASSED 
#  
#  01000101011000111100000001000101 01000100101111110011001100010000 01000101101000011010110011100110 01000101101000011010110011100110 01000101000001000010011010111101 01000101000001000010011010111101  
#  PASSED 
#  
#  01000100111010111110010110010000 01000100100000001101101010010001 01000101001101100110000000010000 01000101001101100110000000010000 01000100010101100001010111111110 01000100010101100001010111111110  
#  PASSED 
#  
#  01000100110011000111101000010000 01000100100111000100110100100001 01000101001101000110001110011000 01000101001101000110001110011000 01000011110000001011001110111100 01000011110000001011001110111100  
#  PASSED 
#  
#  01000101000110100011001101010111 01000110100100000110001000110110 01000110101000111010100010100000 01000110101000111010100010100001 11000110011110100011011110011000 11000110011110100011011110010110  
#  PASSED 
#  
#  01000101011000011010010010100111 01000100100010100111000110111110 01000101100100110110111011000011 01000101100100110110111011000011 01000101000111000110101111001000 01000101000111000110101111001000  
#  PASSED 
#  
#  01000101100001010000010001111011 01000100100101101010011111011000 01000101101010101010111001110001 01000101101010101010111001110001 01000101001111101011010100001010 01000101001111101011010100001010  
#  PASSED 
#  
#  01000110000010111001111010010010 01000110101001000011001111101100 01000110111010100000001100110101 01000110111010100000001100110101 11000110001111001100100101000110 11000110001111001100100101000110  
#  PASSED 
#  
#  01000101000010111001110000100010 01000101000001101100110110111110 01000101100010010011010011110000 01000101100010010011010011110000 01000010100110011100110010000000 01000010100110011100110010000000  
#  PASSED 
#  
#  01000100101001011001010101100100 01000101000111000010001111110001 01000101011011101110111010100011 01000101011011101110111010100011 11000100100100101011001001111110 11000100100100101011001001111110  
#  PASSED 
#  
run 500
#  01000100100111001101110100101101 01000101000011100111100110100010 01000101010111001110100000111000 01000101010111001110100000111000 11000100100000000001011000011000 11000100100000000001011000010111  
#  PASSED 
#  
#  01000111000000111101000110100000 01000101101100111110010101101001 01000111000110100100111001001101 01000111000110100100111001001101 01000110110110101010100111100110 01000110110110101010100111100110  
#  PASSED 
#  
#  01000110001010100110000010100100 01000101000000010010111011010111 01000110010010101010110001011001 01000110010010101010110001011010 01000110000010100001010011101111 01000110000010100001010011101110  
#  PASSED 
#  
#  01000100101000000111001111100001 01000101011110100001010101111110 01000101101001010010011110110111 01000101101001010010011110110111 11000101001010011101101110001110 11000101001010011101101110001110  
#  PASSED 
#  
#  01000100100000101111011010010110 01000101000100011110111111110000 01000101010100110110101100111011 01000101010100110110101100111011 11000100101000001110100101001010 11000100101000001110100101001010  
#  PASSED 
#  
#  01000100100001101011110010110111 01000110000001010110111011111010 01000110000101100100011010010000 01000110000101100100011010010001 11000101111010010010111011001000 11000101111010010010111011000110  
#  PASSED 
#  
#  01000100110001010100001000101011 01000100100011010001010011010110 01000101001010010010101110000000 01000101001010010010101110000000 01000011111000001011010101010100 01000011111000001011010101010100  
#  PASSED 
#  
#  01000110100011110100000010100011 01000101011000010001111101001111 01000110101010110110010010001100 01000110101010110110010010001101 01000110011001100011100101110100 01000110011001100011100101110010  
#  PASSED 
#  
#  01000101000110011110100100101100 01000101101100011001111001000000 01000101111111101001001011010110 01000101111111101001001011010110 11000101010010010101001101010100 11000101010010010101001101010100  
#  PASSED 
#  
#  01000101011101000100101111100111 01000100100111111011000010000001 01000101101000100001001000010011 01000101101000100001001000010100 01000101001001000111001110100111 01000101001001000111001110100110  
#  PASSED 
#  
#  01000100110100010110001111001110 01000101001000100100000001011101 01000101100001010111100100100010 01000101100001010111100100100010 11000100011001100011100111011000 11000100011001100011100111011000  
#  PASSED 
#  
#  01000100110101110001000000100001 01000110100110101001010110101100 01000110101010000000011010101110 01000110101010000000011010101110 11000110100011010010010010101010 11000110100011010010010010101010  
#  PASSED 
#  
#  01000100101001100110010111000100 01000100011111101100111001000110 01000101000100101110011001110011 01000101000100101110011001110100 01000011100110111111101010000100 01000011100110111111101010000100  
#  PASSED 
#  
#  01000100100101111111000011101001 01000100110010000111011010110111 01000101001100000011001111010000 01000101001100000011001111010000 11000011110000100001011100111000 11000011110000100001011100111000  
#  PASSED 
#  
#  01000100011111011000100100111011 01000100100011100101100111110001 01000101000001101000111101000111 01000101000001101000111101000111 11000010111110010101010101000000 11000010111110010101010100111000  
#  PASSED 
#  
#  01000100100001010010111110101010 01000111001101001000011111001100 01000111001110001011000101001001 01000111001110001011000101001001 11000111001100000101111001001111 11000111001100000101111001001111  
#  PASSED 
#  
#  01000110100010100001001101011011 01000101001010101011111100110000 01000110100111110110101101000001 01000110100111110110101101000001 01000110011010010111011011101010 01000110011010010111011011101010  
#  PASSED 
#  
#  01000100100010111110010101100000 01000101001100111110010101101001 01000101011110011101100000011001 01000101011110011101100000011001 11000100110110111110010101110010 11000100110110111110010101110010  
#  PASSED 
#  
#  01000101101111001110001110100111 01000100100110110000010010000001 01000101111000111010010011000111 01000101111000111010010011000111 01000101100101100010001010000111 01000101100101100010001010000111  
#  PASSED 
#  
#  01000101100111111001100010011100 01000100100111000110001010000100 01000101110001101011000100111101 01000101110001101011000100111101 01000101011100001111111111110110 01000101011100001111111111110110  
#  PASSED 
#  
#  01000110101000110100001010100101 01000100111110010011101101010110 01000110101100101101011001011010 01000110101100101101011001011010 01000110100100111010111011110000 01000110100100111010111011110000  
#  PASSED 
#  
#  01000100100010001110100001101111 01000100101001101100110111011010 01000101000101111101101100100100 01000101000101111101101100100100 11000011011011110010101101011000 11000011011011110010101101011000  
#  PASSED 
#  
#  01000101001010111111001101111011 01000100110000011100010010110001 01000101100001100110101011101001 01000101100001100110101011101010 01000100100101100010001001000110 01000100100101100010001001000101  
#  PASSED 
#  
#  01000101000010111011001000010011 01000100111001101011001110011000 01000101011111110000101111011111 01000101011111110000101111011111 01000011110000101100001000111000 01000011110000101100001000111000  
#  PASSED 
#  
#  01000100100001110000001000010001 01000100101001001111100001010001 01000101000101011111110100110001 01000101000101011111110100110001 11000011011011111011001000000000 11000011011011111011001000000000  
#  PASSED 
#  
#  01000100100100101001010001100100 01000100101110110000001001011001 01000101001001101100101101011110 01000101001001101100101101011110 11000011101000011011011111010100 11000011101000011011011111010100  
#  PASSED 
#  
#  01000100100110111111110001011101 01000100111100100100011000000001 01000101010001110010000100101111 01000101010001110010000100101111 11000100001011001001001101001000 11000100001011001001001101001000  
#  PASSED 
#  
#  01000100100000000111101101011111 01000101000000110000011010101101 01000101010000110100010001011100 01000101010000110100010001011100 11000100100001011001000111111100 11000100100001011001000111111011  
#  PASSED 
#  
#  01000100100110101010111100010100 01000101001001001000101110111100 01000101011100011110001101000110 01000101011100011110001101000110 11000100101011100110100001100100 11000100101011100110100001100100  
#  PASSED 
#  
#  01000101101010011100000110001111 01000110011000000010100101001010 01000110100110101000010100001000 01000110100110101000010100001001 11000110000010110100100010000011 11000110000010110100100010000010  
#  PASSED 
#  
#  01000101000010111101100100100110 01000100100001110000111110111110 01000101010011110110000100000101 01000101010011110110000100000101 01000100100100001010001010001110 01000100100100001010001010001110  
#  PASSED 
#  
#  01000111001100001000101111011101 01000100111001001010110111100111 01000111001101111011000101001100 01000111001101111011000101001100 01000111001010010110011001101110 01000111001010010110011001101110  
#  PASSED 
#  
#  01000100100111010011110011000001 01000101010110000011010110101010 01000101100100110110101000000101 01000101100100110110101000000101 11000101000010011001011101001010 11000101000010011001011101001010  
#  PASSED 
#  
#  01000101000000110111001001010010 01000101011110001000000110000110 01000101101111011111100111101100 01000101101111011111100111101100 11000100111010100001111001101000 11000100111010100001111001101000  
#  PASSED 
#  
#  01000101000111101100011110001011 01000100110001101110101001110001 01000101100000010001111001100001 01000101100000010001111001100010 01000100011011010100100101001100 01000100011011010100100101001010  
#  PASSED 
#  
#  01000101100010101001010010000101 01000101101100011010011000100100 01000110000111100001110101010100 01000110000111100001110101010100 11000100100111000100011001111100 11000100100111000100011001111100  
#  PASSED 
#  
#  01000100101111001111010110000000 01000111111011010000011110100001 01000111111011111111101101110111 01000111111011111111101101110111 11000111111010100001001111001011 11000111111010100001001111001011  
#  PASSED 
#  
#  01000100110010110001100100001111 01000101101100000100110110011100 01000101111000110001001111011111 01000101111000110001001111100000 11000101011110110000111010110010 11000101011110110000111010110000  
#  PASSED 
#  
#  01000100100100001001011001100111 01000100110010101111011110010000 01000101001011011100011011111011 01000101001011011100011011111100 11000011111010011000010010100100 11000011111010011000010010100100  
#  PASSED 
#  
#  01000100110001101011011010010000 01000101101110011100010101010100 01000101111010110111001011111000 01000101111010110111001011111000 11000101100010000001011110110000 11000101100010000001011110110000  
#  PASSED 
#  
#  01000101101101000010011000111010 01000100101011110110001111000010 01000101110111111111111100101010 01000101110111111111111100101010 01000101100010000100110101001010 01000101100010000100110101001010  
#  PASSED 
#  
#  01000100101111010101110001100000 01000100100001100000100100111110 01000101001000011011001011001111 01000101001000011011001011001111 01000011110111010100110010001000 01000011110111010100110010001000  
#  PASSED 
#  
#  01000100100101001010001000000001 01000101100010001001010101110100 01000101101011011011110111110100 01000101101011011011110111110100 11000101010001101101100111101000 11000101010001101101100111101000  
#  PASSED 
#  
#  01000101001100000100010111010111 01000100101011001000011111010001 01000101100000110100010011011111 01000101100000110100010011100000 01000100101101000000001111011110 01000100101101000000001111011101  
#  PASSED 
#  
#  01000111000001110111001000010011 01000101000110011111001000001111 01000111000100010001000100110011 01000111000100010001000100110100 01000110111110111010010111100110 01000110111110111010010111100100  
#  PASSED 
#  
#  01000101010011000110001010001110 01000101010010110110001111101110 01000101110010111110001100111110 01000101110010111110001100111110 01000001011111101010000000000000 01000001011111101010000000000000  
#  PASSED 
#  
#  01000101010001010100011100001001 01000101000111011100100111011110 01000101101100011000100001110011 01000101101100011000100001110100 01000100000111011111010010101100 01000100000111011111010010101100  
#  PASSED 
#  
#  01000100100011010100001011101101 01000100110101001010111100110001 01000101001100001111100100001111 01000101001100001111100100001111 11000100000011101101100010001000 11000100000011101101100010001000  
#  PASSED 
#  
#  01000101000100110100010100100011 01000101100011011001101110110010 01000101110101110011111001000011 01000101110101110011111001000100 11000101000001111111001001000010 11000101000001111111001001000001  
#  PASSED 
#  
#  01000100011111010101100100001110 01000100111110001100001100110101 01000101001110111011011111011110 01000101001110111011011111011110 11000100011101000010110101011100 11000100011101000010110101011100  
#  PASSED 
#  
run 50000
#  01000101101100001010001101000000 01000100011110100111111100110110 01000101110011111111001100100110 01000101110011111111001100100111 01000101100100010101001101011010 01000101100100010101001101011001  
#  PASSED 
#  
#  01000100100000000101101001100011 01000101010001111110101001110010 01000101100001000000101111010001 01000101100001000000101111010010 11000101000001111011110101000001 11000101000001111011110101000000  
#  PASSED 
#  
#  01000101011111010011110011111100 01000100100101000001000110010011 01000101101000111010001011100010 01000101101000111010001011100011 01000101001100110011010000110011 01000101001100110011010000110010  
#  PASSED 
#  
#  01000100110100010001000110111000 01000100100000011101101011001010 01000101001010010111011001000001 01000101001010010111011001000001 01000100000111100110110111011100 01000100000111100110110111011100  
#  PASSED 
#  
#  01000100101100100011000010100011 01000101001100000111000010011011 01000101100001001100010001110110 01000101100001001100010001110110 11000100101011101011000010010100 11000100101011101011000010010011  
#  PASSED 
#  
#  01000101101010111111101011011111 01000100101111010110001100011010 01000101110110110101001110100101 01000101110110110101001110100110 01000101011110010100010000110010 01000101011110010100010000110001  
#  PASSED 
#  
#  01000100100011001000110010000010 01000110011000001111001011111111 01000110011100101000010010001111 01000110011100101000010010001111 11000110010011110110000101101111 11000110010011110110000101101111  
#  PASSED 
#  
#  01000100100101000110110000111011 01000101001111000001011101011100 01000101100000110010011010111100 01000101100000110010011010111101 11000100111000111100001001111110 11000100111000111100001001111101  
#  PASSED 
#  
#  01000100101100111111000110001100 01000100100101010100000101110110 01000101001001001001100110000001 01000101001001001001100110000001 01000011011101011000000010110000 01000011011101011000000010110000  
#  PASSED 
#  
#  01000110110111101111110101011110 01000110000001100010101011110110 01000111000100010000100101101100 01000111000100010000100101101100 01000110100110111110011111100011 01000110100110111110011111100011  
#  PASSED 
#  
#  01000100101101000101100011111110 01000101000001001011011100111111 01000101010111101110001110111110 01000101010111101110001110111110 11000100001010100010101100000000 11000100001010100010101100000000  
#  PASSED 
#  
#  01000101100110010111001100010101 01000100111010000001001011110101 01000101110100110111011111010010 01000101110100110111011111010010 01000101001111101101110010110000 01000101001111101101110010110000  
#  PASSED 
#  
#  01000101100000101111111000011000 01000100110011000110101001100100 01000101101101100001100010110001 01000101101101100001100010110001 01000101000111111100011011111110 01000101000111111100011011111110  
#  PASSED 
#  
#  01000100100110011110101010100111 01000100111001111111111011000100 01000101010000001111010010110101 01000101010000001111010010110110 11000100000111000010100000111010 11000100000111000010100000111010  
#  PASSED 
#  
#  01000111100100011100100000001100 01000101100110000110011000100100 01000111100110110100111001101110 01000111100110110100111001101110 01000111100010000100000110101010 01000111100010000100000110101010  
#  PASSED 
#  
#  01000100111001010111001010101100 01000100011110100111110101000000 01000101001100010101100010100110 01000101001100010101100010100110 01000100010100000110100000011000 01000100010100000110100000011000  
#  PASSED 
#  
#  01000110010110000110010001110011 01000100111111001100100011110100 01000110011101111111110110010001 01000110011101111111110110010010 01000110001110001100101101010101 01000110001110001100101101010100  
#  PASSED 
#  
#  01000100100000110011000110100110 01000100100001110101100011011110 01000101000001010100010101000010 01000101000001010100010101000010 11000010000001001110011100000000 11000010000001001110011100000000  
#  PASSED 
#  
#  01000100100010010010010101110110 01000100100001010111111110101110 01000101000001110101001010010010 01000101000001110101001010010010 01000001111010010111001000000000 01000001111010010111001000000000  
#  PASSED 
#  
#  01000101001111011101101000110101 01000100100000111100111001011110 01000101011111111100000101100100 01000101011111111100000101100100 01000100111101111110011000001100 01000100111101111110011000001100  
#  PASSED 
#  
#  01000100110100011111010101110000 01000100100000111111000100100110 01000101001010101111001101001011 01000101001010101111001101001011 01000100000111000000100010010100 01000100000111000000100010010100  
#  PASSED 
#  
#  01000110001001100101011000110010 01000101010011110011011111011100 01000110010110100010010000101001 01000110010110100010010000101001 01000101111001010001000001110110 01000101111001010001000001110110  
#  PASSED 
#  
#  01000101000001001110100111110110 01000100100011001100100100011100 01000101010010110100111010000100 01000101010010110100111010000100 01000100011110100001010110100000 01000100011110100001010110100000  
#  PASSED 
#  
#  01000101000001010001101010011101 01000100100010011111101110001011 01000101010010100001100001100010 01000101010010100001100001100010 01000100100000000011100110110000 01000100100000000011100110101111  
#  PASSED 
#  
#  01000100111110110101001110110010 01000101101001110010011010111010 01000101111001011111101110100110 01000101111001011111101110100110 11000101010100001010001110011100 11000101010100001010001110011011  
#  PASSED 
#  
#  01000100101010110101101010100001 01000100101001001111100001010001 01000101001010000010100101111001 01000101001010000010100101111001 01000010010011000100101000000000 01000010010011000100101000000000  
#  PASSED 
#  
#  01000100101010011011010011110101 01000111011000011011111000100000 01000111011001110000101111000111 01000111011001110000101111001000 11000111010111000111000001111001 11000111010111000111000001111000  
#  PASSED 
#  
#  01000100100111000100101000010011 01000101011111001010010100001000 01000101101001010110010100001000 01000101101001010110010100001001 11000101001011100111111111111111 11000101001011100111111111111110  
#  PASSED 
#  
#  01000111101011001111011110111011 01000101000100110011111110110111 01000111101100011001000110111000 01000111101100011001000110111001 01000111101010000101110110111110 01000111101010000101110110111101  
#  PASSED 
#  
#  01000100111111000100000101110010 01000100110110010111001100000101 01000101011010101101101000111011 01000101011010101101101000111100 01000011100010110011100110110100 01000011100010110011100110110100  
#  PASSED 
#  
#  01000101010110011101011110101111 01000101010001001011111100101111 01000101110011110100101101101111 01000101110011110100101101101111 01000011101010001100010000000000 01000011101010001100010000000000  
#  PASSED 
#  
#  01000101101101000110111101011110 01000100100010000100110000100110 01000101110101101000001001100111 01000101110101101000001001101000 01000101100100100101110001010101 01000101100100100101110001010100  
#  PASSED 
#  
#  01000100100111011011001010001010 01000101100010001100010000101000 01000101101100000011000011001010 01000101101100000011000011001010 11000101010000101010111100001100 11000101010000101010111100001011  
#  PASSED 
#  
#  01000110010000100000000111001000 01000100111101111111111010001111 01000110011000010000000110011001 01000110011000010000000110011010 01000110001000110000000111110111 01000110001000110000000111110110  
#  PASSED 
#  
#  01000101000101010001010011110101 01000101100000001010001110101001 01000101110010110010111000100011 01000101110010110010111000100100 11000100110110000110010010111100 11000100110110000110010010111010  
#  PASSED 
#  
#  01000101101010010010001110100011 01000101011100010111100100111101 01000110000100001111000000100000 01000110000100001111000000100001 01000100110000011001110000010100 01000100110000011001110000010010  
#  PASSED 
#  
#  01000101000100111010100110110111 01000111100011110010110000100000 01000111100100111100100101101101 01000111100100111100100101101110 11000111100010101000111011010011 11000111100010101000111011010010  
#  PASSED 
#  
#  01000100101001000101101010110111 01000101110001001110101011000101 01000101111011100000000101110010 01000101111011100000000101110011 11000101100110111101010000011000 11000101100110111101010000010111  
#  PASSED 
#  
#  01000100100000001111101011000101 01000101011100010111000111110011 01000101100110001111011110101010 01000101100110001111011110101011 11000101001100001111010010010001 11000101001100001111010010010000  
#  PASSED 
#  
#  01000100111100001101010110101100 01000100100000000111100001000111 01000101001110001010011011111001 01000101001110001010011011111010 01000100011000001011101011001010 01000100011000001011101011001010  
#  PASSED 
#  
#        100 test complate with          0 errors
# ** Note: $finish    : E:/adder_floating_point/t.sv(51)
#    Time: 995 ps  Iteration: 1  Instance: /t
# 1
# Break in Module t at E:/adder_floating_point/t.sv line 51
# Compile of adder_floating_point.sv was successful.
# Compile of t.sv failed with 2 errors.
# 2 compiles, 1 failed with 2 errors. 
# Compile of adder_floating_point.sv was successful.
# Compile of t.sv was successful.
# 2 compiles, 0 failed with no errors. 
vsim work.t
# vsim work.t 
# Loading sv_std.std
# Loading work.t
# Loading work.adder_floating_point
# WARNING: No extended dataflow license exists
run 50000
# a: 01111111100000000000000000000000 b: 01111111100000000000000000000000 a+b : 01111111100000000000000000000000 a+b (expected) : 01111111100000000000000000000000 a-b  01111111100000000000000000000001 a-b (expected) 11111111110000000000000000000000  
#  PASSED 
#  
# a: 01111111100000000000000000000000 b: 11111111100000000000000000000000 a+b : 01111111100000000000000000000001 a+b (expected) : 11111111110000000000000000000000 a-b  01111111100000000000000000000000 a-b (expected) 11111111100000000000000000000000  
#  PASSED 
#  
# a: 01111111100000000000000000000000 b: 01111111100000000000000000000000 a+b : 01111111100000000000000000000000 a+b (expected) : 01111111100000000000000000000000 a-b  01111111100000000000000000000001 a-b (expected) 11111111110000000000000000000000  
#  PASSED 
#  
# a: 01111111100000000000000000000000 b: 11111111110000000000000000000000 a+b : 01111111100000000000000000000001 a+b (expected) : 11111111110000000000000000000000 a-b  01111111110000000000000000000000 a-b (expected) 11111111110000000000000000000000  
#  PASSED 
#  
# a: 01111111100000000000000000000000 b: 00110001001100000000000000000000 a+b : 01111111100000000000000000000000 a+b (expected) : 01111111100000000000000000000000 a-b  01111111100000000000000000000000 a-b (expected) 11111111100000000000000000000000  
#  PASSED 
#  
# a: 11111111100000000000000000000000 b: 01111111100000000000000000000000 a+b : 01111111100000000000000000000001 a+b (expected) : 11111111110000000000000000000000 a-b  11111111100000000000000000000000 a-b (expected) 01111111100000000000000000000000  
#  PASSED 
#  
# a: 11111111100000000000000000000000 b: 11111111100000000000000000000000 a+b : 11111111100000000000000000000000 a+b (expected) : 11111111100000000000000000000000 a-b  01111111100000000000000000000001 a-b (expected) 11111111110000000000000000000000  
#  PASSED 
#  
# a: 11111111100000000000000000000000 b: 01111111100000000000000000000000 a+b : 01111111100000000000000000000001 a+b (expected) : 11111111110000000000000000000000 a-b  11111111100000000000000000000000 a-b (expected) 01111111100000000000000000000000  
#  PASSED 
#  
# a: 11111111100000000000000000000000 b: 11111111110000000000000000000000 a+b : 11111111110000000000000000000000 a+b (expected) : 11111111110000000000000000000000 a-b  01111111100000000000000000000001 a-b (expected) 11111111110000000000000000000000  
#  PASSED 
#  
# a: 11111111100000000000000000000000 b: 00110001001100010000000000000000 a+b : 11111111100000000000000000000000 a+b (expected) : 11111111100000000000000000000000 a-b  11111111100000000000000000000000 a-b (expected) 01111111100000000000000000000000  
#  PASSED 
#  
# a: 01111111100000000000000000000000 b: 01111111100000000000000000000000 a+b : 01111111100000000000000000000000 a+b (expected) : 01111111100000000000000000000000 a-b  01111111100000000000000000000001 a-b (expected) 11111111110000000000000000000000  
#  PASSED 
#  
# a: 01111111100000000000000000000000 b: 11111111100000000000000000000000 a+b : 01111111100000000000000000000001 a+b (expected) : 11111111110000000000000000000000 a-b  01111111100000000000000000000000 a-b (expected) 11111111100000000000000000000000  
#  PASSED 
#  
# a: 01111111100000000000000000000000 b: 01111111100000000000000000000000 a+b : 01111111100000000000000000000000 a+b (expected) : 01111111100000000000000000000000 a-b  01111111100000000000000000000001 a-b (expected) 11111111110000000000000000000000  
#  PASSED 
#  
# a: 01111111100000000000000000000000 b: 11111111110000000000000000000000 a+b : 01111111100000000000000000000001 a+b (expected) : 11111111110000000000000000000000 a-b  01111111110000000000000000000000 a-b (expected) 11111111110000000000000000000000  
#  PASSED 
#  
# a: 01111111100000000000000000000000 b: 00110001001100000000000000000000 a+b : 01111111100000000000000000000000 a+b (expected) : 01111111100000000000000000000000 a-b  01111111100000000000000000000000 a-b (expected) 11111111100000000000000000000000  
#  PASSED 
#  
# a: 11111111110000000000000000000000 b: 01111111100000000000000000000000 a+b : 01111111100000000000000000000001 a+b (expected) : 11111111110000000000000000000000 a-b  11111111110000000000000000000000 a-b (expected) 11111111110000000000000000000000  
#  PASSED 
#  
# a: 11111111110000000000000000000000 b: 11111111100000000000000000000000 a+b : 11111111110000000000000000000000 a+b (expected) : 11111111110000000000000000000000 a-b  01111111100000000000000000000001 a-b (expected) 11111111110000000000000000000000  
#  PASSED 
#  
# a: 11111111110000000000000000000000 b: 01111111100000000000000000000000 a+b : 01111111100000000000000000000001 a+b (expected) : 11111111110000000000000000000000 a-b  11111111110000000000000000000000 a-b (expected) 11111111110000000000000000000000  
#  PASSED 
#  
# a: 11111111110000000000000000000000 b: 11111111110000000000000000000000 a+b : 11111111100000000000000000000000 a+b (expected) : 11111111110000000000000000000000 a-b  01111111100000000000000000000001 a-b (expected) 11111111110000000000000000000000  
#  PASSED 
#  
# a: 11111111110000000000000000000000 b: 00110001001100010000000000000000 a+b : 11111111110000000000000000000000 a+b (expected) : 11111111110000000000000000000000 a-b  11111111110000000000000000000000 a-b (expected) 11111111110000000000000000000000  
#  PASSED 
#  
# a: 00110001001100010000000000000000 b: 01111111100000000000000000000000 a+b : 01111111100000000000000000000000 a+b (expected) : 01111111100000000000000000000000 a-b  01111111100000000000000000000000 a-b (expected) 01111111100000000000000000000000  
#  PASSED 
#  
# a: 00110001001100000000000000000000 b: 11111111100000000000000000000000 a+b : 11111111100000000000000000000000 a+b (expected) : 11111111100000000000000000000000 a-b  11111111100000000000000000000000 a-b (expected) 11111111100000000000000000000000  
#  PASSED 
#  
# a: 00110001001100010000000000000000 b: 01111111100000000000000000000000 a+b : 01111111100000000000000000000000 a+b (expected) : 01111111100000000000000000000000 a-b  01111111100000000000000000000000 a-b (expected) 01111111100000000000000000000000  
#  PASSED 
#  
# a: 00110001001100000000000000000000 b: 11111111110000000000000000000000 a+b : 11111111110000000000000000000000 a+b (expected) : 11111111110000000000000000000000 a-b  11111111110000000000000000000000 a-b (expected) 11111111110000000000000000000000  
#  PASSED 
#  
# a: 00110001001100010000000000000000 b: 00110000001100000000000000000000 a+b : 00110001010111010000000000000000 a+b (expected) : 00110000101100000000000000000000 a-b  00110001000001010000000000000000 a-b (expected) 00000000000000000000000000000000  
#  PASSED 
#  
# a: xxxxxxxxxxxxxxxxxxxxxxxxxxxxxxxx b: xxxxxxxxxxxxxxxxxxxxxxxxxxxxxxxx a+b : xxxxxxxxxxxxxxxxxxxxxxxxxxxxxxxx a+b (expected) : xxxxxxxxxxxxxxxxxxxxxxxxxxxxxxxx a-b  xxxxxxxxxxxxxxxxxxxxxxxxxxxxxxxx a-b (expected) xxxxxxxxxxxxxxxxxxxxxxxxxxxxxxxx  
#  PASSED 
#  
# a: xxxxxxxxxxxxxxxxxxxxxxxxxxxxxxxx b: xxxxxxxxxxxxxxxxxxxxxxxxxxxxxxxx a+b : xxxxxxxxxxxxxxxxxxxxxxxxxxxxxxxx a+b (expected) : xxxxxxxxxxxxxxxxxxxxxxxxxxxxxxxx a-b  xxxxxxxxxxxxxxxxxxxxxxxxxxxxxxxx a-b (expected) xxxxxxxxxxxxxxxxxxxxxxxxxxxxxxxx  
#  PASSED 
#  
# a: xxxxxxxxxxxxxxxxxxxxxxxxxxxxxxxx b: xxxxxxxxxxxxxxxxxxxxxxxxxxxxxxxx a+b : xxxxxxxxxxxxxxxxxxxxxxxxxxxxxxxx a+b (expected) : xxxxxxxxxxxxxxxxxxxxxxxxxxxxxxxx a-b  xxxxxxxxxxxxxxxxxxxxxxxxxxxxxxxx a-b (expected) xxxxxxxxxxxxxxxxxxxxxxxxxxxxxxxx  
#  PASSED 
#  
# a: xxxxxxxxxxxxxxxxxxxxxxxxxxxxxxxx b: xxxxxxxxxxxxxxxxxxxxxxxxxxxxxxxx a+b : xxxxxxxxxxxxxxxxxxxxxxxxxxxxxxxx a+b (expected) : xxxxxxxxxxxxxxxxxxxxxxxxxxxxxxxx a-b  xxxxxxxxxxxxxxxxxxxxxxxxxxxxxxxx a-b (expected) xxxxxxxxxxxxxxxxxxxxxxxxxxxxxxxx  
#  PASSED 
#  
# a: xxxxxxxxxxxxxxxxxxxxxxxxxxxxxxxx b: xxxxxxxxxxxxxxxxxxxxxxxxxxxxxxxx a+b : xxxxxxxxxxxxxxxxxxxxxxxxxxxxxxxx a+b (expected) : xxxxxxxxxxxxxxxxxxxxxxxxxxxxxxxx a-b  xxxxxxxxxxxxxxxxxxxxxxxxxxxxxxxx a-b (expected) xxxxxxxxxxxxxxxxxxxxxxxxxxxxxxxx  
#  PASSED 
#  
# a: xxxxxxxxxxxxxxxxxxxxxxxxxxxxxxxx b: xxxxxxxxxxxxxxxxxxxxxxxxxxxxxxxx a+b : xxxxxxxxxxxxxxxxxxxxxxxxxxxxxxxx a+b (expected) : xxxxxxxxxxxxxxxxxxxxxxxxxxxxxxxx a-b  xxxxxxxxxxxxxxxxxxxxxxxxxxxxxxxx a-b (expected) xxxxxxxxxxxxxxxxxxxxxxxxxxxxxxxx  
#  PASSED 
#  
# a: xxxxxxxxxxxxxxxxxxxxxxxxxxxxxxxx b: xxxxxxxxxxxxxxxxxxxxxxxxxxxxxxxx a+b : xxxxxxxxxxxxxxxxxxxxxxxxxxxxxxxx a+b (expected) : xxxxxxxxxxxxxxxxxxxxxxxxxxxxxxxx a-b  xxxxxxxxxxxxxxxxxxxxxxxxxxxxxxxx a-b (expected) xxxxxxxxxxxxxxxxxxxxxxxxxxxxxxxx  
#  PASSED 
#  
# a: xxxxxxxxxxxxxxxxxxxxxxxxxxxxxxxx b: xxxxxxxxxxxxxxxxxxxxxxxxxxxxxxxx a+b : xxxxxxxxxxxxxxxxxxxxxxxxxxxxxxxx a+b (expected) : xxxxxxxxxxxxxxxxxxxxxxxxxxxxxxxx a-b  xxxxxxxxxxxxxxxxxxxxxxxxxxxxxxxx a-b (expected) xxxxxxxxxxxxxxxxxxxxxxxxxxxxxxxx  
#  PASSED 
#  
